%YAML 1.1
%TAG !u! tag:unity3d.com,2011:
--- !u!114 &11400000
MonoBehaviour:
  m_ObjectHideFlags: 0
  m_CorrespondingSourceObject: {fileID: 0}
  m_PrefabInstance: {fileID: 0}
  m_PrefabAsset: {fileID: 0}
  m_GameObject: {fileID: 0}
  m_Enabled: 1
  m_EditorHideFlags: 0
  m_Script: {fileID: 11500000, guid: 588fee22dea3a1047b709197c2c0f0ca, type: 3}
  m_Name: Cuban
  m_EditorClassIdentifier: 
  bpm: 112
  audioList: []
  audioListPlayAlways:
  - {fileID: 8300000, guid: 55b970aadc063aa41a39bdc623055a5f, type: 3}
  containerVolume: 0
  stingers: []
  mixerGroup: {fileID: -7102811064870444498, guid: b68ad06166d523246b5265f416b04f35, type: 2}
  playMode: all
